^E:\GAMEPROJECT\TREMORX\SRC\STDAFX.CPP
/c /IE:\GameProject\TremorX\include /IE:\GameProject\TremorX\src /IE:\GameProject\Tecs\Tecs /I"E:\GameProject\luajit\luajit-2.0\src" /I"C:\Program Files (x86)\Visual Leak Detector\include" /ZI /nologo /W3 /WX- /Od /Oy- /D __TREMOR_WIN32__ /D WIN32 /D _DEBUG /D _CONSOLE /D _LIB /D _UNICODE /D UNICODE /Gm /EHsc /RTC1 /MDd /GS /fp:precise /Zc:wchar_t /Zc:forScope /Yc"stdafx.h" /Fp"DEBUG\OBJ\TREMORX.PCH" /Fo"DEBUG\OBJ\\" /Fd"DEBUG\OBJ\VC120.PDB" /Gd /TP /analyze- E:\GAMEPROJECT\TREMORX\SRC\STDAFX.CPP
^E:\GAMEPROJECT\TREMORX\SRC\2D\TEXT2D.CPP
/c /IE:\GameProject\TremorX\include /IE:\GameProject\TremorX\src /IE:\GameProject\Tecs\Tecs /I"E:\GameProject\luajit\luajit-2.0\src" /I"C:\Program Files (x86)\Visual Leak Detector\include" /ZI /nologo /W3 /WX- /Od /Oy- /D __TREMOR_WIN32__ /D WIN32 /D _DEBUG /D _CONSOLE /D _LIB /D _UNICODE /D UNICODE /Gm /EHsc /RTC1 /MDd /GS /fp:precise /Zc:wchar_t /Zc:forScope /Yu"stdafx.h" /Fp"DEBUG\OBJ\TREMORX.PCH" /Fo"DEBUG\OBJ\\" /Fd"DEBUG\OBJ\VC120.PDB" /Gd /TP /analyze- E:\GAMEPROJECT\TREMORX\SRC\2D\TEXT2D.CPP
^E:\GAMEPROJECT\TREMORX\SRC\2D\TEXTURE.CPP
/c /IE:\GameProject\TremorX\include /IE:\GameProject\TremorX\src /IE:\GameProject\Tecs\Tecs /I"E:\GameProject\luajit\luajit-2.0\src" /I"C:\Program Files (x86)\Visual Leak Detector\include" /ZI /nologo /W3 /WX- /Od /Oy- /D __TREMOR_WIN32__ /D WIN32 /D _DEBUG /D _CONSOLE /D _LIB /D _UNICODE /D UNICODE /Gm /EHsc /RTC1 /MDd /GS /fp:precise /Zc:wchar_t /Zc:forScope /Yu"stdafx.h" /Fp"DEBUG\OBJ\TREMORX.PCH" /Fo"DEBUG\OBJ\\" /Fd"DEBUG\OBJ\VC120.PDB" /Gd /TP /analyze- E:\GAMEPROJECT\TREMORX\SRC\2D\TEXTURE.CPP
^E:\GAMEPROJECT\TREMORX\SRC\2D\BITMAPFONT.CPP
/c /IE:\GameProject\TremorX\include /IE:\GameProject\TremorX\src /IE:\GameProject\Tecs\Tecs /I"E:\GameProject\luajit\luajit-2.0\src" /I"C:\Program Files (x86)\Visual Leak Detector\include" /ZI /nologo /W3 /WX- /Od /Oy- /D __TREMOR_WIN32__ /D WIN32 /D _DEBUG /D _CONSOLE /D _LIB /D _UNICODE /D UNICODE /Gm /EHsc /RTC1 /MDd /GS /fp:precise /Zc:wchar_t /Zc:forScope /Yu"stdafx.h" /Fp"DEBUG\OBJ\TREMORX.PCH" /Fo"DEBUG\OBJ\\" /Fd"DEBUG\OBJ\VC120.PDB" /Gd /TP /analyze- E:\GAMEPROJECT\TREMORX\SRC\2D\BITMAPFONT.CPP
^E:\GAMEPROJECT\TREMORX\SRC\2D\TEXTUREREGION.CPP
/c /IE:\GameProject\TremorX\include /IE:\GameProject\TremorX\src /IE:\GameProject\Tecs\Tecs /I"E:\GameProject\luajit\luajit-2.0\src" /I"C:\Program Files (x86)\Visual Leak Detector\include" /ZI /nologo /W3 /WX- /Od /Oy- /D __TREMOR_WIN32__ /D WIN32 /D _DEBUG /D _CONSOLE /D _LIB /D _UNICODE /D UNICODE /Gm /EHsc /RTC1 /MDd /GS /fp:precise /Zc:wchar_t /Zc:forScope /Yu"stdafx.h" /Fp"DEBUG\OBJ\TREMORX.PCH" /Fo"DEBUG\OBJ\\" /Fd"DEBUG\OBJ\VC120.PDB" /Gd /TP /analyze- E:\GAMEPROJECT\TREMORX\SRC\2D\TEXTUREREGION.CPP
^E:\GAMEPROJECT\TREMORX\SRC\3D\MESH.CPP
/c /IE:\GameProject\TremorX\include /IE:\GameProject\TremorX\src /IE:\GameProject\Tecs\Tecs /I"E:\GameProject\luajit\luajit-2.0\src" /I"C:\Program Files (x86)\Visual Leak Detector\include" /ZI /nologo /W3 /WX- /Od /Oy- /D __TREMOR_WIN32__ /D WIN32 /D _DEBUG /D _CONSOLE /D _LIB /D _UNICODE /D UNICODE /Gm /EHsc /RTC1 /MDd /GS /fp:precise /Zc:wchar_t /Zc:forScope /Yu"stdafx.h" /Fp"DEBUG\OBJ\TREMORX.PCH" /Fo"DEBUG\OBJ\\" /Fd"DEBUG\OBJ\VC120.PDB" /Gd /TP /analyze- E:\GAMEPROJECT\TREMORX\SRC\3D\MESH.CPP
^E:\GAMEPROJECT\TREMORX\SRC\ASSETS\ASSETMANAGER.CPP
/c /IE:\GameProject\TremorX\include /IE:\GameProject\TremorX\src /IE:\GameProject\Tecs\Tecs /I"E:\GameProject\luajit\luajit-2.0\src" /I"C:\Program Files (x86)\Visual Leak Detector\include" /ZI /nologo /W3 /WX- /Od /Oy- /D __TREMOR_WIN32__ /D WIN32 /D _DEBUG /D _CONSOLE /D _LIB /D _UNICODE /D UNICODE /Gm /EHsc /RTC1 /MDd /GS /fp:precise /Zc:wchar_t /Zc:forScope /Yu"stdafx.h" /Fp"DEBUG\OBJ\TREMORX.PCH" /Fo"DEBUG\OBJ\\" /Fd"DEBUG\OBJ\VC120.PDB" /Gd /TP /analyze- E:\GAMEPROJECT\TREMORX\SRC\ASSETS\ASSETMANAGER.CPP
^E:\GAMEPROJECT\TREMORX\SRC\ASSETS\MAPS\MAPLAYER.CPP
/c /IE:\GameProject\TremorX\include /IE:\GameProject\TremorX\src /IE:\GameProject\Tecs\Tecs /I"E:\GameProject\luajit\luajit-2.0\src" /I"C:\Program Files (x86)\Visual Leak Detector\include" /ZI /nologo /W3 /WX- /Od /Oy- /D __TREMOR_WIN32__ /D WIN32 /D _DEBUG /D _CONSOLE /D _LIB /D _UNICODE /D UNICODE /Gm /EHsc /RTC1 /MDd /GS /fp:precise /Zc:wchar_t /Zc:forScope /Yu"stdafx.h" /Fp"DEBUG\OBJ\TREMORX.PCH" /Fo"DEBUG\OBJ\\" /Fd"DEBUG\OBJ\VC120.PDB" /Gd /TP /analyze- E:\GAMEPROJECT\TREMORX\SRC\ASSETS\MAPS\MAPLAYER.CPP
^E:\GAMEPROJECT\TREMORX\SRC\ASSETS\MAPS\MAPOBJECT.CPP
/c /IE:\GameProject\TremorX\include /IE:\GameProject\TremorX\src /IE:\GameProject\Tecs\Tecs /I"E:\GameProject\luajit\luajit-2.0\src" /I"C:\Program Files (x86)\Visual Leak Detector\include" /ZI /nologo /W3 /WX- /Od /Oy- /D __TREMOR_WIN32__ /D WIN32 /D _DEBUG /D _CONSOLE /D _LIB /D _UNICODE /D UNICODE /Gm /EHsc /RTC1 /MDd /GS /fp:precise /Zc:wchar_t /Zc:forScope /Yu"stdafx.h" /Fp"DEBUG\OBJ\TREMORX.PCH" /Fo"DEBUG\OBJ\\" /Fd"DEBUG\OBJ\VC120.PDB" /Gd /TP /analyze- E:\GAMEPROJECT\TREMORX\SRC\ASSETS\MAPS\MAPOBJECT.CPP
^E:\GAMEPROJECT\TREMORX\SRC\ASSETS\MAPS\STATICTILE.CPP
/c /IE:\GameProject\TremorX\include /IE:\GameProject\TremorX\src /IE:\GameProject\Tecs\Tecs /I"E:\GameProject\luajit\luajit-2.0\src" /I"C:\Program Files (x86)\Visual Leak Detector\include" /ZI /nologo /W3 /WX- /Od /Oy- /D __TREMOR_WIN32__ /D WIN32 /D _DEBUG /D _CONSOLE /D _LIB /D _UNICODE /D UNICODE /Gm /EHsc /RTC1 /MDd /GS /fp:precise /Zc:wchar_t /Zc:forScope /Yu"stdafx.h" /Fp"DEBUG\OBJ\TREMORX.PCH" /Fo"DEBUG\OBJ\\" /Fd"DEBUG\OBJ\VC120.PDB" /Gd /TP /analyze- E:\GAMEPROJECT\TREMORX\SRC\ASSETS\MAPS\STATICTILE.CPP
^E:\GAMEPROJECT\TREMORX\SRC\ASSETS\MAPS\TILEDMAP.CPP
/c /IE:\GameProject\TremorX\include /IE:\GameProject\TremorX\src /IE:\GameProject\Tecs\Tecs /I"E:\GameProject\luajit\luajit-2.0\src" /I"C:\Program Files (x86)\Visual Leak Detector\include" /ZI /nologo /W3 /WX- /Od /Oy- /D __TREMOR_WIN32__ /D WIN32 /D _DEBUG /D _CONSOLE /D _LIB /D _UNICODE /D UNICODE /Gm /EHsc /RTC1 /MDd /GS /fp:precise /Zc:wchar_t /Zc:forScope /Yu"stdafx.h" /Fp"DEBUG\OBJ\TREMORX.PCH" /Fo"DEBUG\OBJ\\" /Fd"DEBUG\OBJ\VC120.PDB" /Gd /TP /analyze- E:\GAMEPROJECT\TREMORX\SRC\ASSETS\MAPS\TILEDMAP.CPP
^E:\GAMEPROJECT\TREMORX\SRC\ASSETS\MAPS\TILESET.CPP
/c /IE:\GameProject\TremorX\include /IE:\GameProject\TremorX\src /IE:\GameProject\Tecs\Tecs /I"E:\GameProject\luajit\luajit-2.0\src" /I"C:\Program Files (x86)\Visual Leak Detector\include" /ZI /nologo /W3 /WX- /Od /Oy- /D __TREMOR_WIN32__ /D WIN32 /D _DEBUG /D _CONSOLE /D _LIB /D _UNICODE /D UNICODE /Gm /EHsc /RTC1 /MDd /GS /fp:precise /Zc:wchar_t /Zc:forScope /Yu"stdafx.h" /Fp"DEBUG\OBJ\TREMORX.PCH" /Fo"DEBUG\OBJ\\" /Fd"DEBUG\OBJ\VC120.PDB" /Gd /TP /analyze- E:\GAMEPROJECT\TREMORX\SRC\ASSETS\MAPS\TILESET.CPP
^E:\GAMEPROJECT\TREMORX\SRC\ASSETS\OBJLOADER.CPP
/c /IE:\GameProject\TremorX\include /IE:\GameProject\TremorX\src /IE:\GameProject\Tecs\Tecs /I"E:\GameProject\luajit\luajit-2.0\src" /I"C:\Program Files (x86)\Visual Leak Detector\include" /ZI /nologo /W3 /WX- /Od /Oy- /D __TREMOR_WIN32__ /D WIN32 /D _DEBUG /D _CONSOLE /D _LIB /D _UNICODE /D UNICODE /Gm /EHsc /RTC1 /MDd /GS /fp:precise /Zc:wchar_t /Zc:forScope /Yu"stdafx.h" /Fp"DEBUG\OBJ\TREMORX.PCH" /Fo"DEBUG\OBJ\\" /Fd"DEBUG\OBJ\VC120.PDB" /Gd /TP /analyze- E:\GAMEPROJECT\TREMORX\SRC\ASSETS\OBJLOADER.CPP
^E:\GAMEPROJECT\TREMORX\SRC\ASSETS\TILEDMAPLOADER.CPP
/c /IE:\GameProject\TremorX\include /IE:\GameProject\TremorX\src /IE:\GameProject\Tecs\Tecs /I"E:\GameProject\luajit\luajit-2.0\src" /I"C:\Program Files (x86)\Visual Leak Detector\include" /ZI /nologo /W3 /WX- /Od /Oy- /D __TREMOR_WIN32__ /D WIN32 /D _DEBUG /D _CONSOLE /D _LIB /D _UNICODE /D UNICODE /Gm /EHsc /RTC1 /MDd /GS /fp:precise /Zc:wchar_t /Zc:forScope /Yu"stdafx.h" /Fp"DEBUG\OBJ\TREMORX.PCH" /Fo"DEBUG\OBJ\\" /Fd"DEBUG\OBJ\VC120.PDB" /Gd /TP /analyze- E:\GAMEPROJECT\TREMORX\SRC\ASSETS\TILEDMAPLOADER.CPP
^E:\GAMEPROJECT\TREMORX\SRC\COMPONENTS\PHYSICSBODY.CPP
/c /IE:\GameProject\TremorX\include /IE:\GameProject\TremorX\src /IE:\GameProject\Tecs\Tecs /I"E:\GameProject\luajit\luajit-2.0\src" /I"C:\Program Files (x86)\Visual Leak Detector\include" /ZI /nologo /W3 /WX- /Od /Oy- /D __TREMOR_WIN32__ /D WIN32 /D _DEBUG /D _CONSOLE /D _LIB /D _UNICODE /D UNICODE /Gm /EHsc /RTC1 /MDd /GS /fp:precise /Zc:wchar_t /Zc:forScope /Yu"stdafx.h" /Fp"DEBUG\OBJ\TREMORX.PCH" /Fo"DEBUG\OBJ\\" /Fd"DEBUG\OBJ\VC120.PDB" /Gd /TP /analyze- E:\GAMEPROJECT\TREMORX\SRC\COMPONENTS\PHYSICSBODY.CPP
^E:\GAMEPROJECT\TREMORX\SRC\COMPONENTS\SPRITE.CPP
/c /IE:\GameProject\TremorX\include /IE:\GameProject\TremorX\src /IE:\GameProject\Tecs\Tecs /I"E:\GameProject\luajit\luajit-2.0\src" /I"C:\Program Files (x86)\Visual Leak Detector\include" /ZI /nologo /W3 /WX- /Od /Oy- /D __TREMOR_WIN32__ /D WIN32 /D _DEBUG /D _CONSOLE /D _LIB /D _UNICODE /D UNICODE /Gm /EHsc /RTC1 /MDd /GS /fp:precise /Zc:wchar_t /Zc:forScope /Yu"stdafx.h" /Fp"DEBUG\OBJ\TREMORX.PCH" /Fo"DEBUG\OBJ\\" /Fd"DEBUG\OBJ\VC120.PDB" /Gd /TP /analyze- E:\GAMEPROJECT\TREMORX\SRC\COMPONENTS\SPRITE.CPP
^E:\GAMEPROJECT\TREMORX\SRC\COMPONENTS\SPRITEANIMATION.CPP
/c /IE:\GameProject\TremorX\include /IE:\GameProject\TremorX\src /IE:\GameProject\Tecs\Tecs /I"E:\GameProject\luajit\luajit-2.0\src" /I"C:\Program Files (x86)\Visual Leak Detector\include" /ZI /nologo /W3 /WX- /Od /Oy- /D __TREMOR_WIN32__ /D WIN32 /D _DEBUG /D _CONSOLE /D _LIB /D _UNICODE /D UNICODE /Gm /EHsc /RTC1 /MDd /GS /fp:precise /Zc:wchar_t /Zc:forScope /Yu"stdafx.h" /Fp"DEBUG\OBJ\TREMORX.PCH" /Fo"DEBUG\OBJ\\" /Fd"DEBUG\OBJ\VC120.PDB" /Gd /TP /analyze- E:\GAMEPROJECT\TREMORX\SRC\COMPONENTS\SPRITEANIMATION.CPP
^E:\GAMEPROJECT\TREMORX\SRC\COMPONENTS\TRANSFORM.CPP
/c /IE:\GameProject\TremorX\include /IE:\GameProject\TremorX\src /IE:\GameProject\Tecs\Tecs /I"E:\GameProject\luajit\luajit-2.0\src" /I"C:\Program Files (x86)\Visual Leak Detector\include" /ZI /nologo /W3 /WX- /Od /Oy- /D __TREMOR_WIN32__ /D WIN32 /D _DEBUG /D _CONSOLE /D _LIB /D _UNICODE /D UNICODE /Gm /EHsc /RTC1 /MDd /GS /fp:precise /Zc:wchar_t /Zc:forScope /Yu"stdafx.h" /Fp"DEBUG\OBJ\TREMORX.PCH" /Fo"DEBUG\OBJ\\" /Fd"DEBUG\OBJ\VC120.PDB" /Gd /TP /analyze- E:\GAMEPROJECT\TREMORX\SRC\COMPONENTS\TRANSFORM.CPP
^E:\GAMEPROJECT\TREMORX\SRC\CORE\APPLICATION.CPP
/c /IE:\GameProject\TremorX\include /IE:\GameProject\TremorX\src /IE:\GameProject\Tecs\Tecs /I"E:\GameProject\luajit\luajit-2.0\src" /I"C:\Program Files (x86)\Visual Leak Detector\include" /ZI /nologo /W3 /WX- /Od /Oy- /D __TREMOR_WIN32__ /D WIN32 /D _DEBUG /D _CONSOLE /D _LIB /D _UNICODE /D UNICODE /Gm /EHsc /RTC1 /MDd /GS /fp:precise /Zc:wchar_t /Zc:forScope /Yu"stdafx.h" /Fp"DEBUG\OBJ\TREMORX.PCH" /Fo"DEBUG\OBJ\\" /Fd"DEBUG\OBJ\VC120.PDB" /Gd /TP /analyze- E:\GAMEPROJECT\TREMORX\SRC\CORE\APPLICATION.CPP
^E:\GAMEPROJECT\TREMORX\SRC\CORE\TREMOR.CPP
/c /IE:\GameProject\TremorX\include /IE:\GameProject\TremorX\src /IE:\GameProject\Tecs\Tecs /I"E:\GameProject\luajit\luajit-2.0\src" /I"C:\Program Files (x86)\Visual Leak Detector\include" /ZI /nologo /W3 /WX- /Od /Oy- /D __TREMOR_WIN32__ /D WIN32 /D _DEBUG /D _CONSOLE /D _LIB /D _UNICODE /D UNICODE /Gm /EHsc /RTC1 /MDd /GS /fp:precise /Zc:wchar_t /Zc:forScope /Yu"stdafx.h" /Fp"DEBUG\OBJ\TREMORX.PCH" /Fo"DEBUG\OBJ\\" /Fd"DEBUG\OBJ\VC120.PDB" /Gd /TP /analyze- E:\GAMEPROJECT\TREMORX\SRC\CORE\TREMOR.CPP
^E:\GAMEPROJECT\TREMORX\SRC\PLATFORMS\WIN32\APPLICATIONCONTEXT.CPP
/c /IE:\GameProject\TremorX\include /IE:\GameProject\TremorX\src /IE:\GameProject\Tecs\Tecs /I"E:\GameProject\luajit\luajit-2.0\src" /I"C:\Program Files (x86)\Visual Leak Detector\include" /ZI /nologo /W3 /WX- /Od /Oy- /D __TREMOR_WIN32__ /D WIN32 /D _DEBUG /D _CONSOLE /D _LIB /D _UNICODE /D UNICODE /Gm /EHsc /RTC1 /MDd /GS /fp:precise /Zc:wchar_t /Zc:forScope /Yu"stdafx.h" /Fp"DEBUG\OBJ\TREMORX.PCH" /Fo"DEBUG\OBJ\\" /Fd"DEBUG\OBJ\VC120.PDB" /Gd /TP /analyze- E:\GAMEPROJECT\TREMORX\SRC\PLATFORMS\WIN32\APPLICATIONCONTEXT.CPP
^E:\GAMEPROJECT\TREMORX\SRC\PLATFORMS\WIN32\GRAPHICS.CPP
/c /IE:\GameProject\TremorX\include /IE:\GameProject\TremorX\src /IE:\GameProject\Tecs\Tecs /I"E:\GameProject\luajit\luajit-2.0\src" /I"C:\Program Files (x86)\Visual Leak Detector\include" /ZI /nologo /W3 /WX- /Od /Oy- /D __TREMOR_WIN32__ /D WIN32 /D _DEBUG /D _CONSOLE /D _LIB /D _UNICODE /D UNICODE /Gm /EHsc /RTC1 /MDd /GS /fp:precise /Zc:wchar_t /Zc:forScope /Yu"stdafx.h" /Fp"DEBUG\OBJ\TREMORX.PCH" /Fo"DEBUG\OBJ\\" /Fd"DEBUG\OBJ\VC120.PDB" /Gd /TP /analyze- E:\GAMEPROJECT\TREMORX\SRC\PLATFORMS\WIN32\GRAPHICS.CPP
^E:\GAMEPROJECT\TREMORX\SRC\PLATFORMS\WIN32\INPUT.CPP
/c /IE:\GameProject\TremorX\include /IE:\GameProject\TremorX\src /IE:\GameProject\Tecs\Tecs /I"E:\GameProject\luajit\luajit-2.0\src" /I"C:\Program Files (x86)\Visual Leak Detector\include" /ZI /nologo /W3 /WX- /Od /Oy- /D __TREMOR_WIN32__ /D WIN32 /D _DEBUG /D _CONSOLE /D _LIB /D _UNICODE /D UNICODE /Gm /EHsc /RTC1 /MDd /GS /fp:precise /Zc:wchar_t /Zc:forScope /Yu"stdafx.h" /Fp"DEBUG\OBJ\TREMORX.PCH" /Fo"DEBUG\OBJ\\" /Fd"DEBUG\OBJ\VC120.PDB" /Gd /TP /analyze- E:\GAMEPROJECT\TREMORX\SRC\PLATFORMS\WIN32\INPUT.CPP
^E:\GAMEPROJECT\TREMORX\SRC\PLATFORMS\WIN32\LOGWIN32.CPP
/c /IE:\GameProject\TremorX\include /IE:\GameProject\TremorX\src /IE:\GameProject\Tecs\Tecs /I"E:\GameProject\luajit\luajit-2.0\src" /I"C:\Program Files (x86)\Visual Leak Detector\include" /ZI /nologo /W3 /WX- /Od /Oy- /D __TREMOR_WIN32__ /D WIN32 /D _DEBUG /D _CONSOLE /D _LIB /D _UNICODE /D UNICODE /Gm /EHsc /RTC1 /MDd /GS /fp:precise /Zc:wchar_t /Zc:forScope /Yu"stdafx.h" /Fp"DEBUG\OBJ\TREMORX.PCH" /Fo"DEBUG\OBJ\\" /Fd"DEBUG\OBJ\VC120.PDB" /Gd /TP /analyze- E:\GAMEPROJECT\TREMORX\SRC\PLATFORMS\WIN32\LOGWIN32.CPP
^E:\GAMEPROJECT\TREMORX\SRC\RENDERING\CAMERA.CPP
/c /IE:\GameProject\TremorX\include /IE:\GameProject\TremorX\src /IE:\GameProject\Tecs\Tecs /I"E:\GameProject\luajit\luajit-2.0\src" /I"C:\Program Files (x86)\Visual Leak Detector\include" /ZI /nologo /W3 /WX- /Od /Oy- /D __TREMOR_WIN32__ /D WIN32 /D _DEBUG /D _CONSOLE /D _LIB /D _UNICODE /D UNICODE /Gm /EHsc /RTC1 /MDd /GS /fp:precise /Zc:wchar_t /Zc:forScope /Yu"stdafx.h" /Fp"DEBUG\OBJ\TREMORX.PCH" /Fo"DEBUG\OBJ\\" /Fd"DEBUG\OBJ\VC120.PDB" /Gd /TP /analyze- E:\GAMEPROJECT\TREMORX\SRC\RENDERING\CAMERA.CPP
^E:\GAMEPROJECT\TREMORX\SRC\RENDERING\DEFERREDLIGHTSCONTROLLER.CPP
/c /IE:\GameProject\TremorX\include /IE:\GameProject\TremorX\src /IE:\GameProject\Tecs\Tecs /I"E:\GameProject\luajit\luajit-2.0\src" /I"C:\Program Files (x86)\Visual Leak Detector\include" /ZI /nologo /W3 /WX- /Od /Oy- /D __TREMOR_WIN32__ /D WIN32 /D _DEBUG /D _CONSOLE /D _LIB /D _UNICODE /D UNICODE /Gm /EHsc /RTC1 /MDd /GS /fp:precise /Zc:wchar_t /Zc:forScope /Yu"stdafx.h" /Fp"DEBUG\OBJ\TREMORX.PCH" /Fo"DEBUG\OBJ\\" /Fd"DEBUG\OBJ\VC120.PDB" /Gd /TP /analyze- E:\GAMEPROJECT\TREMORX\SRC\RENDERING\DEFERREDLIGHTSCONTROLLER.CPP
^E:\GAMEPROJECT\TREMORX\SRC\RENDERING\DEFERREDRENDERER.CPP
/c /IE:\GameProject\TremorX\include /IE:\GameProject\TremorX\src /IE:\GameProject\Tecs\Tecs /I"E:\GameProject\luajit\luajit-2.0\src" /I"C:\Program Files (x86)\Visual Leak Detector\include" /ZI /nologo /W3 /WX- /Od /Oy- /D __TREMOR_WIN32__ /D WIN32 /D _DEBUG /D _CONSOLE /D _LIB /D _UNICODE /D UNICODE /Gm /EHsc /RTC1 /MDd /GS /fp:precise /Zc:wchar_t /Zc:forScope /Yu"stdafx.h" /Fp"DEBUG\OBJ\TREMORX.PCH" /Fo"DEBUG\OBJ\\" /Fd"DEBUG\OBJ\VC120.PDB" /Gd /TP /analyze- E:\GAMEPROJECT\TREMORX\SRC\RENDERING\DEFERREDRENDERER.CPP
^E:\GAMEPROJECT\TREMORX\SRC\RENDERING\FORWARDRENDERER.CPP
/c /IE:\GameProject\TremorX\include /IE:\GameProject\TremorX\src /IE:\GameProject\Tecs\Tecs /I"E:\GameProject\luajit\luajit-2.0\src" /I"C:\Program Files (x86)\Visual Leak Detector\include" /ZI /nologo /W3 /WX- /Od /Oy- /D __TREMOR_WIN32__ /D WIN32 /D _DEBUG /D _CONSOLE /D _LIB /D _UNICODE /D UNICODE /Gm /EHsc /RTC1 /MDd /GS /fp:precise /Zc:wchar_t /Zc:forScope /Yu"stdafx.h" /Fp"DEBUG\OBJ\TREMORX.PCH" /Fo"DEBUG\OBJ\\" /Fd"DEBUG\OBJ\VC120.PDB" /Gd /TP /analyze- E:\GAMEPROJECT\TREMORX\SRC\RENDERING\FORWARDRENDERER.CPP
^E:\GAMEPROJECT\TREMORX\SRC\RENDERING\GBUFFER.CPP
/c /IE:\GameProject\TremorX\include /IE:\GameProject\TremorX\src /IE:\GameProject\Tecs\Tecs /I"E:\GameProject\luajit\luajit-2.0\src" /I"C:\Program Files (x86)\Visual Leak Detector\include" /ZI /nologo /W3 /WX- /Od /Oy- /D __TREMOR_WIN32__ /D WIN32 /D _DEBUG /D _CONSOLE /D _LIB /D _UNICODE /D UNICODE /Gm /EHsc /RTC1 /MDd /GS /fp:precise /Zc:wchar_t /Zc:forScope /Yu"stdafx.h" /Fp"DEBUG\OBJ\TREMORX.PCH" /Fo"DEBUG\OBJ\\" /Fd"DEBUG\OBJ\VC120.PDB" /Gd /TP /analyze- E:\GAMEPROJECT\TREMORX\SRC\RENDERING\GBUFFER.CPP
^E:\GAMEPROJECT\TREMORX\SRC\RENDERING\PHYSICSRENDERER.CPP
/c /IE:\GameProject\TremorX\include /IE:\GameProject\TremorX\src /IE:\GameProject\Tecs\Tecs /I"E:\GameProject\luajit\luajit-2.0\src" /I"C:\Program Files (x86)\Visual Leak Detector\include" /ZI /nologo /W3 /WX- /Od /Oy- /D __TREMOR_WIN32__ /D WIN32 /D _DEBUG /D _CONSOLE /D _LIB /D _UNICODE /D UNICODE /Gm /EHsc /RTC1 /MDd /GS /fp:precise /Zc:wchar_t /Zc:forScope /Yu"stdafx.h" /Fp"DEBUG\OBJ\TREMORX.PCH" /Fo"DEBUG\OBJ\\" /Fd"DEBUG\OBJ\VC120.PDB" /Gd /TP /analyze- E:\GAMEPROJECT\TREMORX\SRC\RENDERING\PHYSICSRENDERER.CPP
^E:\GAMEPROJECT\TREMORX\SRC\RENDERING\QUADRENDERER.CPP
/c /IE:\GameProject\TremorX\include /IE:\GameProject\TremorX\src /IE:\GameProject\Tecs\Tecs /I"E:\GameProject\luajit\luajit-2.0\src" /I"C:\Program Files (x86)\Visual Leak Detector\include" /ZI /nologo /W3 /WX- /Od /Oy- /D __TREMOR_WIN32__ /D WIN32 /D _DEBUG /D _CONSOLE /D _LIB /D _UNICODE /D UNICODE /Gm /EHsc /RTC1 /MDd /GS /fp:precise /Zc:wchar_t /Zc:forScope /Yu"stdafx.h" /Fp"DEBUG\OBJ\TREMORX.PCH" /Fo"DEBUG\OBJ\\" /Fd"DEBUG\OBJ\VC120.PDB" /Gd /TP /analyze- E:\GAMEPROJECT\TREMORX\SRC\RENDERING\QUADRENDERER.CPP
^E:\GAMEPROJECT\TREMORX\SRC\RENDERING\SHADERPROGRAM.CPP
/c /IE:\GameProject\TremorX\include /IE:\GameProject\TremorX\src /IE:\GameProject\Tecs\Tecs /I"E:\GameProject\luajit\luajit-2.0\src" /I"C:\Program Files (x86)\Visual Leak Detector\include" /ZI /nologo /W3 /WX- /Od /Oy- /D __TREMOR_WIN32__ /D WIN32 /D _DEBUG /D _CONSOLE /D _LIB /D _UNICODE /D UNICODE /Gm /EHsc /RTC1 /MDd /GS /fp:precise /Zc:wchar_t /Zc:forScope /Yu"stdafx.h" /Fp"DEBUG\OBJ\TREMORX.PCH" /Fo"DEBUG\OBJ\\" /Fd"DEBUG\OBJ\VC120.PDB" /Gd /TP /analyze- E:\GAMEPROJECT\TREMORX\SRC\RENDERING\SHADERPROGRAM.CPP
^E:\GAMEPROJECT\TREMORX\SRC\RENDERING\SPRITEBATCH.CPP
/c /IE:\GameProject\TremorX\include /IE:\GameProject\TremorX\src /IE:\GameProject\Tecs\Tecs /I"E:\GameProject\luajit\luajit-2.0\src" /I"C:\Program Files (x86)\Visual Leak Detector\include" /ZI /nologo /W3 /WX- /Od /Oy- /D __TREMOR_WIN32__ /D WIN32 /D _DEBUG /D _CONSOLE /D _LIB /D _UNICODE /D UNICODE /Gm /EHsc /RTC1 /MDd /GS /fp:precise /Zc:wchar_t /Zc:forScope /Yu"stdafx.h" /Fp"DEBUG\OBJ\TREMORX.PCH" /Fo"DEBUG\OBJ\\" /Fd"DEBUG\OBJ\VC120.PDB" /Gd /TP /analyze- E:\GAMEPROJECT\TREMORX\SRC\RENDERING\SPRITEBATCH.CPP
^E:\GAMEPROJECT\TREMORX\SRC\SCENE\SCENE.CPP
/c /IE:\GameProject\TremorX\include /IE:\GameProject\TremorX\src /IE:\GameProject\Tecs\Tecs /I"E:\GameProject\luajit\luajit-2.0\src" /I"C:\Program Files (x86)\Visual Leak Detector\include" /ZI /nologo /W3 /WX- /Od /Oy- /D __TREMOR_WIN32__ /D WIN32 /D _DEBUG /D _CONSOLE /D _LIB /D _UNICODE /D UNICODE /Gm /EHsc /RTC1 /MDd /GS /fp:precise /Zc:wchar_t /Zc:forScope /Yu"stdafx.h" /Fp"DEBUG\OBJ\TREMORX.PCH" /Fo"DEBUG\OBJ\\" /Fd"DEBUG\OBJ\VC120.PDB" /Gd /TP /analyze- E:\GAMEPROJECT\TREMORX\SRC\SCENE\SCENE.CPP
^E:\GAMEPROJECT\TREMORX\SRC\SYSTEMS\PIZZALIGHTINGSYSTEM.CPP
/c /IE:\GameProject\TremorX\include /IE:\GameProject\TremorX\src /IE:\GameProject\Tecs\Tecs /I"E:\GameProject\luajit\luajit-2.0\src" /I"C:\Program Files (x86)\Visual Leak Detector\include" /ZI /nologo /W3 /WX- /Od /Oy- /D __TREMOR_WIN32__ /D WIN32 /D _DEBUG /D _CONSOLE /D _LIB /D _UNICODE /D UNICODE /Gm /EHsc /RTC1 /MDd /GS /fp:precise /Zc:wchar_t /Zc:forScope /Yu"stdafx.h" /Fp"DEBUG\OBJ\TREMORX.PCH" /Fo"DEBUG\OBJ\\" /Fd"DEBUG\OBJ\VC120.PDB" /Gd /TP /analyze- E:\GAMEPROJECT\TREMORX\SRC\SYSTEMS\PIZZALIGHTINGSYSTEM.CPP
^E:\GAMEPROJECT\TREMORX\SRC\SYSTEMS\DEFERREDLIGHTINGSYSTEM.CPP
/c /IE:\GameProject\TremorX\include /IE:\GameProject\TremorX\src /IE:\GameProject\Tecs\Tecs /I"E:\GameProject\luajit\luajit-2.0\src" /I"C:\Program Files (x86)\Visual Leak Detector\include" /ZI /nologo /W3 /WX- /Od /Oy- /D __TREMOR_WIN32__ /D WIN32 /D _DEBUG /D _CONSOLE /D _LIB /D _UNICODE /D UNICODE /Gm /EHsc /RTC1 /MDd /GS /fp:precise /Zc:wchar_t /Zc:forScope /Yu"stdafx.h" /Fp"DEBUG\OBJ\TREMORX.PCH" /Fo"DEBUG\OBJ\\" /Fd"DEBUG\OBJ\VC120.PDB" /Gd /TP /analyze- E:\GAMEPROJECT\TREMORX\SRC\SYSTEMS\DEFERREDLIGHTINGSYSTEM.CPP
^E:\GAMEPROJECT\TREMORX\SRC\SYSTEMS\EVENTSYSTEM.CPP
/c /IE:\GameProject\TremorX\include /IE:\GameProject\TremorX\src /IE:\GameProject\Tecs\Tecs /I"E:\GameProject\luajit\luajit-2.0\src" /I"C:\Program Files (x86)\Visual Leak Detector\include" /ZI /nologo /W3 /WX- /Od /Oy- /D __TREMOR_WIN32__ /D WIN32 /D _DEBUG /D _CONSOLE /D _LIB /D _UNICODE /D UNICODE /Gm /EHsc /RTC1 /MDd /GS /fp:precise /Zc:wchar_t /Zc:forScope /Yu"stdafx.h" /Fp"DEBUG\OBJ\TREMORX.PCH" /Fo"DEBUG\OBJ\\" /Fd"DEBUG\OBJ\VC120.PDB" /Gd /TP /analyze- E:\GAMEPROJECT\TREMORX\SRC\SYSTEMS\EVENTSYSTEM.CPP
^E:\GAMEPROJECT\TREMORX\SRC\SYSTEMS\LUASCRIPTSYSTEM.CPP
/c /IE:\GameProject\TremorX\include /IE:\GameProject\TremorX\src /IE:\GameProject\Tecs\Tecs /I"E:\GameProject\luajit\luajit-2.0\src" /I"C:\Program Files (x86)\Visual Leak Detector\include" /ZI /nologo /W3 /WX- /Od /Oy- /D __TREMOR_WIN32__ /D WIN32 /D _DEBUG /D _CONSOLE /D _LIB /D _UNICODE /D UNICODE /Gm /EHsc /RTC1 /MDd /GS /fp:precise /Zc:wchar_t /Zc:forScope /Yu"stdafx.h" /Fp"DEBUG\OBJ\TREMORX.PCH" /Fo"DEBUG\OBJ\\" /Fd"DEBUG\OBJ\VC120.PDB" /Gd /TP /analyze- E:\GAMEPROJECT\TREMORX\SRC\SYSTEMS\LUASCRIPTSYSTEM.CPP
^E:\GAMEPROJECT\TREMORX\SRC\SYSTEMS\LUAUPDATESYSTEM.CPP
/c /IE:\GameProject\TremorX\include /IE:\GameProject\TremorX\src /IE:\GameProject\Tecs\Tecs /I"E:\GameProject\luajit\luajit-2.0\src" /I"C:\Program Files (x86)\Visual Leak Detector\include" /ZI /nologo /W3 /WX- /Od /Oy- /D __TREMOR_WIN32__ /D WIN32 /D _DEBUG /D _CONSOLE /D _LIB /D _UNICODE /D UNICODE /Gm /EHsc /RTC1 /MDd /GS /fp:precise /Zc:wchar_t /Zc:forScope /Yu"stdafx.h" /Fp"DEBUG\OBJ\TREMORX.PCH" /Fo"DEBUG\OBJ\\" /Fd"DEBUG\OBJ\VC120.PDB" /Gd /TP /analyze- E:\GAMEPROJECT\TREMORX\SRC\SYSTEMS\LUAUPDATESYSTEM.CPP
^E:\GAMEPROJECT\TREMORX\SRC\SYSTEMS\MODELSYSTEM.CPP
/c /IE:\GameProject\TremorX\include /IE:\GameProject\TremorX\src /IE:\GameProject\Tecs\Tecs /I"E:\GameProject\luajit\luajit-2.0\src" /I"C:\Program Files (x86)\Visual Leak Detector\include" /ZI /nologo /W3 /WX- /Od /Oy- /D __TREMOR_WIN32__ /D WIN32 /D _DEBUG /D _CONSOLE /D _LIB /D _UNICODE /D UNICODE /Gm /EHsc /RTC1 /MDd /GS /fp:precise /Zc:wchar_t /Zc:forScope /Yu"stdafx.h" /Fp"DEBUG\OBJ\TREMORX.PCH" /Fo"DEBUG\OBJ\\" /Fd"DEBUG\OBJ\VC120.PDB" /Gd /TP /analyze- E:\GAMEPROJECT\TREMORX\SRC\SYSTEMS\MODELSYSTEM.CPP
^E:\GAMEPROJECT\TREMORX\SRC\SYSTEMS\PHYSICS.CPP
/c /IE:\GameProject\TremorX\include /IE:\GameProject\TremorX\src /IE:\GameProject\Tecs\Tecs /I"E:\GameProject\luajit\luajit-2.0\src" /I"C:\Program Files (x86)\Visual Leak Detector\include" /ZI /nologo /W3 /WX- /Od /Oy- /D __TREMOR_WIN32__ /D WIN32 /D _DEBUG /D _CONSOLE /D _LIB /D _UNICODE /D UNICODE /Gm /EHsc /RTC1 /MDd /GS /fp:precise /Zc:wchar_t /Zc:forScope /Yu"stdafx.h" /Fp"DEBUG\OBJ\TREMORX.PCH" /Fo"DEBUG\OBJ\\" /Fd"DEBUG\OBJ\VC120.PDB" /Gd /TP /analyze- E:\GAMEPROJECT\TREMORX\SRC\SYSTEMS\PHYSICS.CPP
^E:\GAMEPROJECT\TREMORX\SRC\SYSTEMS\SPRITEANIMATIONSYSTEM.CPP
/c /IE:\GameProject\TremorX\include /IE:\GameProject\TremorX\src /IE:\GameProject\Tecs\Tecs /I"E:\GameProject\luajit\luajit-2.0\src" /I"C:\Program Files (x86)\Visual Leak Detector\include" /ZI /nologo /W3 /WX- /Od /Oy- /D __TREMOR_WIN32__ /D WIN32 /D _DEBUG /D _CONSOLE /D _LIB /D _UNICODE /D UNICODE /Gm /EHsc /RTC1 /MDd /GS /fp:precise /Zc:wchar_t /Zc:forScope /Yu"stdafx.h" /Fp"DEBUG\OBJ\TREMORX.PCH" /Fo"DEBUG\OBJ\\" /Fd"DEBUG\OBJ\VC120.PDB" /Gd /TP /analyze- E:\GAMEPROJECT\TREMORX\SRC\SYSTEMS\SPRITEANIMATIONSYSTEM.CPP
^E:\GAMEPROJECT\TREMORX\SRC\SYSTEMS\SPRITESYSTEM.CPP
/c /IE:\GameProject\TremorX\include /IE:\GameProject\TremorX\src /IE:\GameProject\Tecs\Tecs /I"E:\GameProject\luajit\luajit-2.0\src" /I"C:\Program Files (x86)\Visual Leak Detector\include" /ZI /nologo /W3 /WX- /Od /Oy- /D __TREMOR_WIN32__ /D WIN32 /D _DEBUG /D _CONSOLE /D _LIB /D _UNICODE /D UNICODE /Gm /EHsc /RTC1 /MDd /GS /fp:precise /Zc:wchar_t /Zc:forScope /Yu"stdafx.h" /Fp"DEBUG\OBJ\TREMORX.PCH" /Fo"DEBUG\OBJ\\" /Fd"DEBUG\OBJ\VC120.PDB" /Gd /TP /analyze- E:\GAMEPROJECT\TREMORX\SRC\SYSTEMS\SPRITESYSTEM.CPP
^E:\GAMEPROJECT\TREMORX\SRC\UTILS\FILEUTILS.CPP
/c /IE:\GameProject\TremorX\include /IE:\GameProject\TremorX\src /IE:\GameProject\Tecs\Tecs /I"E:\GameProject\luajit\luajit-2.0\src" /I"C:\Program Files (x86)\Visual Leak Detector\include" /ZI /nologo /W3 /WX- /Od /Oy- /D __TREMOR_WIN32__ /D WIN32 /D _DEBUG /D _CONSOLE /D _LIB /D _UNICODE /D UNICODE /Gm /EHsc /RTC1 /MDd /GS /fp:precise /Zc:wchar_t /Zc:forScope /Yu"stdafx.h" /Fp"DEBUG\OBJ\TREMORX.PCH" /Fo"DEBUG\OBJ\\" /Fd"DEBUG\OBJ\VC120.PDB" /Gd /TP /analyze- E:\GAMEPROJECT\TREMORX\SRC\UTILS\FILEUTILS.CPP
^E:\GAMEPROJECT\TREMORX\SRC\UTILS\GLMHELPER.CPP
/c /IE:\GameProject\TremorX\include /IE:\GameProject\TremorX\src /IE:\GameProject\Tecs\Tecs /I"E:\GameProject\luajit\luajit-2.0\src" /I"C:\Program Files (x86)\Visual Leak Detector\include" /ZI /nologo /W3 /WX- /Od /Oy- /D __TREMOR_WIN32__ /D WIN32 /D _DEBUG /D _CONSOLE /D _LIB /D _UNICODE /D UNICODE /Gm /EHsc /RTC1 /MDd /GS /fp:precise /Zc:wchar_t /Zc:forScope /Yu"stdafx.h" /Fp"DEBUG\OBJ\TREMORX.PCH" /Fo"DEBUG\OBJ\\" /Fd"DEBUG\OBJ\VC120.PDB" /Gd /TP /analyze- E:\GAMEPROJECT\TREMORX\SRC\UTILS\GLMHELPER.CPP
^E:\GAMEPROJECT\TREMORX\SRC\UTILS\LODEPNG.CPP
/c /IE:\GameProject\TremorX\include /IE:\GameProject\TremorX\src /IE:\GameProject\Tecs\Tecs /I"E:\GameProject\luajit\luajit-2.0\src" /I"C:\Program Files (x86)\Visual Leak Detector\include" /ZI /nologo /W3 /WX- /Od /Oy- /D __TREMOR_WIN32__ /D WIN32 /D _DEBUG /D _CONSOLE /D _LIB /D _UNICODE /D UNICODE /Gm /EHsc /RTC1 /MDd /GS /fp:precise /Zc:wchar_t /Zc:forScope /Yu"stdafx.h" /Fp"DEBUG\OBJ\TREMORX.PCH" /Fo"DEBUG\OBJ\\" /Fd"DEBUG\OBJ\VC120.PDB" /Gd /TP /analyze- E:\GAMEPROJECT\TREMORX\SRC\UTILS\LODEPNG.CPP
^E:\GAMEPROJECT\TREMORX\SRC\UTILS\LUAEXPOSER.CPP
/c /IE:\GameProject\TremorX\include /IE:\GameProject\TremorX\src /IE:\GameProject\Tecs\Tecs /I"E:\GameProject\luajit\luajit-2.0\src" /I"C:\Program Files (x86)\Visual Leak Detector\include" /ZI /nologo /W3 /WX- /Od /Oy- /D __TREMOR_WIN32__ /D WIN32 /D _DEBUG /D _CONSOLE /D _LIB /D _UNICODE /D UNICODE /Gm /EHsc /RTC1 /MDd /GS /fp:precise /Zc:wchar_t /Zc:forScope /Yu"stdafx.h" /Fp"DEBUG\OBJ\TREMORX.PCH" /Fo"DEBUG\OBJ\\" /Fd"DEBUG\OBJ\VC120.PDB" /Gd /TP /analyze- E:\GAMEPROJECT\TREMORX\SRC\UTILS\LUAEXPOSER.CPP
^E:\GAMEPROJECT\TREMORX\SRC\UTILS\LUAUTILITIES.CPP
/c /IE:\GameProject\TremorX\include /IE:\GameProject\TremorX\src /IE:\GameProject\Tecs\Tecs /I"E:\GameProject\luajit\luajit-2.0\src" /I"C:\Program Files (x86)\Visual Leak Detector\include" /ZI /nologo /W3 /WX- /Od /Oy- /D __TREMOR_WIN32__ /D WIN32 /D _DEBUG /D _CONSOLE /D _LIB /D _UNICODE /D UNICODE /Gm /EHsc /RTC1 /MDd /GS /fp:precise /Zc:wchar_t /Zc:forScope /Yu"stdafx.h" /Fp"DEBUG\OBJ\TREMORX.PCH" /Fo"DEBUG\OBJ\\" /Fd"DEBUG\OBJ\VC120.PDB" /Gd /TP /analyze- E:\GAMEPROJECT\TREMORX\SRC\UTILS\LUAUTILITIES.CPP
^E:\GAMEPROJECT\TREMORX\SRC\UTILS\MESHFACTORY.CPP
/c /IE:\GameProject\TremorX\include /IE:\GameProject\TremorX\src /IE:\GameProject\Tecs\Tecs /I"E:\GameProject\luajit\luajit-2.0\src" /I"C:\Program Files (x86)\Visual Leak Detector\include" /ZI /nologo /W3 /WX- /Od /Oy- /D __TREMOR_WIN32__ /D WIN32 /D _DEBUG /D _CONSOLE /D _LIB /D _UNICODE /D UNICODE /Gm /EHsc /RTC1 /MDd /GS /fp:precise /Zc:wchar_t /Zc:forScope /Yu"stdafx.h" /Fp"DEBUG\OBJ\TREMORX.PCH" /Fo"DEBUG\OBJ\\" /Fd"DEBUG\OBJ\VC120.PDB" /Gd /TP /analyze- E:\GAMEPROJECT\TREMORX\SRC\UTILS\MESHFACTORY.CPP
^E:\GAMEPROJECT\TREMORX\SRC\UTILS\STRINGUTILS.CPP
/c /IE:\GameProject\TremorX\include /IE:\GameProject\TremorX\src /IE:\GameProject\Tecs\Tecs /I"E:\GameProject\luajit\luajit-2.0\src" /I"C:\Program Files (x86)\Visual Leak Detector\include" /ZI /nologo /W3 /WX- /Od /Oy- /D __TREMOR_WIN32__ /D WIN32 /D _DEBUG /D _CONSOLE /D _LIB /D _UNICODE /D UNICODE /Gm /EHsc /RTC1 /MDd /GS /fp:precise /Zc:wchar_t /Zc:forScope /Yu"stdafx.h" /Fp"DEBUG\OBJ\TREMORX.PCH" /Fo"DEBUG\OBJ\\" /Fd"DEBUG\OBJ\VC120.PDB" /Gd /TP /analyze- E:\GAMEPROJECT\TREMORX\SRC\UTILS\STRINGUTILS.CPP
^E:\GAMEPROJECT\TREMORX\SRC\2D\ATLASPAGE.CPP
/c /IE:\GameProject\TremorX\include /IE:\GameProject\TremorX\src /IE:\GameProject\Tecs\Tecs /I"E:\GameProject\luajit\luajit-2.0\src" /I"C:\Program Files (x86)\Visual Leak Detector\include" /ZI /nologo /W3 /WX- /Od /Oy- /D __TREMOR_WIN32__ /D WIN32 /D _DEBUG /D _CONSOLE /D _LIB /D _UNICODE /D UNICODE /Gm /EHsc /RTC1 /MDd /GS /fp:precise /Zc:wchar_t /Zc:forScope /Yu"stdafx.h" /Fp"DEBUG\OBJ\TREMORX.PCH" /Fo"DEBUG\OBJ\\" /Fd"DEBUG\OBJ\VC120.PDB" /Gd /TP /analyze- E:\GAMEPROJECT\TREMORX\SRC\2D\ATLASPAGE.CPP
^E:\GAMEPROJECT\TREMORX\SRC\2D\ATLASREGION.CPP
/c /IE:\GameProject\TremorX\include /IE:\GameProject\TremorX\src /IE:\GameProject\Tecs\Tecs /I"E:\GameProject\luajit\luajit-2.0\src" /I"C:\Program Files (x86)\Visual Leak Detector\include" /ZI /nologo /W3 /WX- /Od /Oy- /D __TREMOR_WIN32__ /D WIN32 /D _DEBUG /D _CONSOLE /D _LIB /D _UNICODE /D UNICODE /Gm /EHsc /RTC1 /MDd /GS /fp:precise /Zc:wchar_t /Zc:forScope /Yu"stdafx.h" /Fp"DEBUG\OBJ\TREMORX.PCH" /Fo"DEBUG\OBJ\\" /Fd"DEBUG\OBJ\VC120.PDB" /Gd /TP /analyze- E:\GAMEPROJECT\TREMORX\SRC\2D\ATLASREGION.CPP
^E:\GAMEPROJECT\TREMORX\SRC\2D\TEXTUREATLAS.CPP
/c /IE:\GameProject\TremorX\include /IE:\GameProject\TremorX\src /IE:\GameProject\Tecs\Tecs /I"E:\GameProject\luajit\luajit-2.0\src" /I"C:\Program Files (x86)\Visual Leak Detector\include" /ZI /nologo /W3 /WX- /Od /Oy- /D __TREMOR_WIN32__ /D WIN32 /D _DEBUG /D _CONSOLE /D _LIB /D _UNICODE /D UNICODE /Gm /EHsc /RTC1 /MDd /GS /fp:precise /Zc:wchar_t /Zc:forScope /Yu"stdafx.h" /Fp"DEBUG\OBJ\TREMORX.PCH" /Fo"DEBUG\OBJ\\" /Fd"DEBUG\OBJ\VC120.PDB" /Gd /TP /analyze- E:\GAMEPROJECT\TREMORX\SRC\2D\TEXTUREATLAS.CPP
^E:\GAMEPROJECT\TREMORX\SRC\2D\TEXTUREATLASDATA.CPP
/c /IE:\GameProject\TremorX\include /IE:\GameProject\TremorX\src /IE:\GameProject\Tecs\Tecs /I"E:\GameProject\luajit\luajit-2.0\src" /I"C:\Program Files (x86)\Visual Leak Detector\include" /ZI /nologo /W3 /WX- /Od /Oy- /D __TREMOR_WIN32__ /D WIN32 /D _DEBUG /D _CONSOLE /D _LIB /D _UNICODE /D UNICODE /Gm /EHsc /RTC1 /MDd /GS /fp:precise /Zc:wchar_t /Zc:forScope /Yu"stdafx.h" /Fp"DEBUG\OBJ\TREMORX.PCH" /Fo"DEBUG\OBJ\\" /Fd"DEBUG\OBJ\VC120.PDB" /Gd /TP /analyze- E:\GAMEPROJECT\TREMORX\SRC\2D\TEXTUREATLASDATA.CPP
^E:\GAMEPROJECT\TREMORX\SRC\2D\TEXTUREATLASDATAREGION.CPP
/c /IE:\GameProject\TremorX\include /IE:\GameProject\TremorX\src /IE:\GameProject\Tecs\Tecs /I"E:\GameProject\luajit\luajit-2.0\src" /I"C:\Program Files (x86)\Visual Leak Detector\include" /ZI /nologo /W3 /WX- /Od /Oy- /D __TREMOR_WIN32__ /D WIN32 /D _DEBUG /D _CONSOLE /D _LIB /D _UNICODE /D UNICODE /Gm /EHsc /RTC1 /MDd /GS /fp:precise /Zc:wchar_t /Zc:forScope /Yu"stdafx.h" /Fp"DEBUG\OBJ\TREMORX.PCH" /Fo"DEBUG\OBJ\\" /Fd"DEBUG\OBJ\VC120.PDB" /Gd /TP /analyze- E:\GAMEPROJECT\TREMORX\SRC\2D\TEXTUREATLASDATAREGION.CPP
^E:\GAMEPROJECT\TREMORX\SRC\COMPONENTS\ATLASSPRITE.CPP
/c /IE:\GameProject\TremorX\include /IE:\GameProject\TremorX\src /IE:\GameProject\Tecs\Tecs /I"E:\GameProject\luajit\luajit-2.0\src" /I"C:\Program Files (x86)\Visual Leak Detector\include" /ZI /nologo /W3 /WX- /Od /Oy- /D __TREMOR_WIN32__ /D WIN32 /D _DEBUG /D _CONSOLE /D _LIB /D _UNICODE /D UNICODE /Gm /EHsc /RTC1 /MDd /GS /fp:precise /Zc:wchar_t /Zc:forScope /Yu"stdafx.h" /Fp"DEBUG\OBJ\TREMORX.PCH" /Fo"DEBUG\OBJ\\" /Fd"DEBUG\OBJ\VC120.PDB" /Gd /TP /analyze- E:\GAMEPROJECT\TREMORX\SRC\COMPONENTS\ATLASSPRITE.CPP
